PCBNEW-LibModule-V1  2022-03-10 19:52:35
# encoding utf-8
Units mm
$INDEX
LM61CIZNOPB
$EndINDEX
$MODULE LM61CIZNOPB
Po 0 0 0 15 622a5703 00000000 ~~
Li LM61CIZNOPB
Cd LM61CIZ/NOPB-4
Kw Integrated Circuit
Sc 0
At STD
AR 
Op 0 0 0
T0 1.270 -0.541 1.27 1.27 0 0.254 N V 21 N "IC**"
T1 1.270 -0.541 1.27 1.27 0 0.254 N I 21 N "LM61CIZNOPB"
DS -2.143 -3.413 4.683 -3.413 0.1 24
DS 4.683 -3.413 4.683 2.33 0.1 24
DS 4.683 2.33 -2.143 2.33 0.1 24
DS -2.143 2.33 -2.143 -3.413 0.1 24
DS -1.143 -0 -1.143 -0 0.1 24
DS 3.683 -0 3.683 1.33 0.1 24
DS 3.683 1.33 -1.143 1.33 0.1 24
DS -1.143 1.33 -1.143 1.33 0.1 24
DS -1.143 1.33 -1.143 -0 0.1 24
DS -1.143 -0 -1.143 -0 0.2 21
DS 3.683 -0 3.683 1.33 0.2 21
DS 3.683 1.33 3.683 1.33 0.2 21
DS 3.683 1.33 -1.143 1.33 0.2 21
DS -1.143 1.33 -1.143 1.33 0.2 21
DS -1.143 1.33 -1.143 -0 0.2 21
DS -1.6 -0 -1.6 -0 0.1 21
DS -1.7 -0 -1.7 -0 0.1 21
DA 1.27 -0 -1.143 -0 1800 0.1 24
DA 1.27 -0 -1.143 -0 1800 0.2 21
DA -1.65 -0 -1.600 -0 -1800 0.1 21
DA -1.65 -0 -1.700 -0 -1800 0.1 21
$PAD
Po 0.000 -0
Sh "1" R 1.070 1.500 0 0 0
Dr 0.85 0 0
At STD N 00E0FFFF
Ne 0 ""
$EndPAD
$PAD
Po 1.270 -0
Sh "2" O 1.070 1.500 0 0 0
Dr 0.85 0 0
At STD N 00E0FFFF
Ne 0 ""
$EndPAD
$PAD
Po 2.540 -0
Sh "3" O 1.070 1.500 0 0 0
Dr 0.85 0 0
At STD N 00E0FFFF
Ne 0 ""
$EndPAD
$EndMODULE LM61CIZNOPB
$EndLIBRARY
