PCBNEW-LibModule-V1  2022-03-17 08:37:35
# encoding utf-8
Units mm
$INDEX
MICROQTJ
$EndINDEX
$MODULE MICROQTJ
Po 0 0 0 15 6232f34f 00000000 ~~
Li MICROQTJ
Cd MICROQTJ-2-1
Kw Connector
Sc 0
At STD
AR 
Op 0 0 0
T0 0.000 -0.463 1.27 1.27 0 0.254 N V 21 N "J**"
T1 0.000 -0.463 1.27 1.27 0 0.254 N I 21 N "MICROQTJ"
DS -3.75 -3.008 3.75 -3.008 0.1 24
DS 3.75 -3.008 3.75 3.192 0.1 24
DS 3.75 3.192 -3.75 3.192 0.1 24
DS -3.75 3.192 -3.75 -3.008 0.1 24
DS -5.115 -5.118 5.115 -5.118 0.1 24
DS 5.115 -5.118 5.115 4.192 0.1 24
DS 5.115 4.192 -5.115 4.192 0.1 24
DS -5.115 4.192 -5.115 -5.118 0.1 24
DS 1.3 -4.4 1.3 -4.4 0.1 21
DS 1.3 -4.5 1.3 -4.5 0.1 21
DS -3.75 0.8 -3.75 3.192 0.2 21
DS -3.75 3.192 3.75 3.192 0.2 21
DS 3.75 3.192 3.75 0.8 0.2 21
DA 1.3 -4.45 1.300 -4.4 -1800 0.1 21
DA 1.3 -4.45 1.300 -4.5 -1800 0.1 21
$PAD
Po 1.300 -3.192
Sh "1" R 0.400 1.850 0 0 0
At SMD N 00888000
Ne 0 ""
$EndPAD
$PAD
Po 0.650 -3.192
Sh "2" R 0.400 1.850 0 0 0
At SMD N 00888000
Ne 0 ""
$EndPAD
$PAD
Po 0.000 -3.192
Sh "3" R 0.400 1.850 0 0 0
At SMD N 00888000
Ne 0 ""
$EndPAD
$PAD
Po -0.650 -3.192
Sh "4" R 0.400 1.850 0 0 0
At SMD N 00888000
Ne 0 ""
$EndPAD
$PAD
Po -1.300 -3.192
Sh "5" R 0.400 1.850 0 0 0
At SMD N 00888000
Ne 0 ""
$EndPAD
$PAD
Po 2.000 -2.508
Sh "MH1" C 0.250 0.250 0 0 900
Dr 0.5 0 0
At STD N 00E0FFFF
Ne 0 ""
$EndPAD
$PAD
Po -2.000 -2.508
Sh "MH2" C 0.250 0.250 0 0 900
Dr 0.5 0 0
At STD N 00E0FFFF
Ne 0 ""
$EndPAD
$PAD
Po 3.212 -2.718
Sh "MP1" R 0.900 1.625 0 0 900
At SMD N 00888000
Ne 0 ""
$EndPAD
$PAD
Po -3.212 -2.718
Sh "MP2" R 0.900 1.625 0 0 900
At SMD N 00888000
Ne 0 ""
$EndPAD
$PAD
Po 3.270 -0.358
Sh "MP3" R 1.300 1.690 0 0 900
At SMD N 00888000
Ne 0 ""
$EndPAD
$PAD
Po -3.270 -0.358
Sh "MP4" R 1.300 1.690 0 0 900
At SMD N 00888000
Ne 0 ""
$EndPAD
$EndMODULE MICROQTJ
$EndLIBRARY
