M48
; DRILL file {KiCad (6.0.2)} date Fri Apr  8 16:15:28 2022
; FORMAT={-:-/ absolute / inch / decimal}
; #@! TF.CreationDate,2022-04-08T16:15:28+02:00
; #@! TF.GenerationSoftware,Kicad,Pcbnew,(6.0.2)
; #@! TF.FileFunction,Plated,1,2,PTH
FMAT,2
INCH
; #@! TA.AperFunction,Plated,PTH,ViaDrill
T1C0.0157
; #@! TA.AperFunction,Plated,PTH,ComponentDrill
T2C0.0394
%
G90
G05
T1
X4.5224Y-4.1154
X4.5879Y-4.0461
X4.874Y-3.7575
X4.902Y-4.1004
X5.1819Y-4.7591
X5.3055Y-3.8894
X5.4492Y-4.7028
X5.7766Y-4.6033
X5.7975Y-3.6665
X5.987Y-3.9921
X6.2059Y-3.9075
X6.33Y-3.96
X6.3413Y-4.0626
X6.387Y-3.8106
X6.4283Y-4.1059
X6.5516Y-4.2343
X6.6878Y-3.6811
X6.6937Y-4.389
X6.7Y-4.05
X6.7016Y-3.4984
X6.749Y-4.2457
X6.7776Y-4.289
X6.8192Y-4.1585
X6.8311Y-4.0697
X6.874Y-3.8157
X6.9524Y-3.7295
X7.2884Y-4.3856
T2
X3.89Y-3.01
X3.89Y-3.41
X3.89Y-5.01
X3.89Y-5.41
X3.8984Y-3.5528
X3.8984Y-3.6528
X3.99Y-3.01
X3.99Y-3.41
X3.99Y-5.01
X3.99Y-5.41
X4.0409Y-3.5591
X4.0409Y-3.6591
X4.09Y-3.01
X4.09Y-3.41
X4.09Y-5.01
X4.09Y-5.41
X4.091Y-4.75
X4.091Y-4.85
X4.19Y-3.01
X4.19Y-3.41
X4.19Y-5.01
X4.19Y-5.41
X4.29Y-3.01
X4.29Y-3.41
X4.29Y-4.719
X4.29Y-5.01
X4.29Y-5.41
X4.2957Y-4.4874
X4.39Y-3.01
X4.39Y-3.41
X4.39Y-4.719
X4.39Y-5.01
X4.39Y-5.41
X4.3957Y-4.4874
X4.49Y-3.01
X4.49Y-3.41
X4.49Y-4.719
X4.49Y-5.01
X4.49Y-5.41
X4.4957Y-4.4874
X4.59Y-3.01
X4.59Y-3.41
X4.59Y-4.719
X4.59Y-5.01
X4.59Y-5.41
X4.5957Y-4.4874
X4.69Y-3.01
X4.69Y-3.41
X4.69Y-5.01
X4.69Y-5.41
X4.79Y-3.01
X4.79Y-3.41
X4.79Y-5.01
X4.79Y-5.41
X4.89Y-3.01
X4.89Y-3.41
X4.89Y-5.01
X4.89Y-5.41
X4.99Y-3.01
X4.99Y-3.41
X4.99Y-5.01
X4.99Y-5.41
X5.09Y-3.01
X5.09Y-3.41
X5.09Y-5.01
X5.09Y-5.41
X5.19Y-3.01
X5.19Y-3.41
X5.19Y-5.01
X5.19Y-5.41
X5.29Y-3.01
X5.29Y-3.41
X5.29Y-5.01
X5.29Y-5.41
X5.39Y-3.01
X5.39Y-3.41
X5.39Y-5.01
X5.39Y-5.41
X5.3933Y-4.1366
X5.3933Y-4.2366
X5.49Y-3.01
X5.49Y-3.41
X5.49Y-5.01
X5.49Y-5.41
X5.59Y-3.01
X5.59Y-3.41
X5.59Y-5.01
X5.59Y-5.41
X5.6416Y-4.3464
X5.6508Y-4.179
X5.69Y-3.01
X5.69Y-3.41
X5.69Y-5.01
X5.69Y-5.41
X5.7416Y-4.3464
X5.7508Y-4.179
X5.79Y-3.01
X5.79Y-3.41
X5.79Y-5.01
X5.79Y-5.41
X5.89Y-3.01
X5.89Y-3.41
X5.89Y-5.01
X5.89Y-5.41
X5.99Y-3.01
X5.99Y-3.41
X5.99Y-5.01
X5.99Y-5.41
X6.09Y-3.01
X6.09Y-3.41
X6.09Y-5.01
X6.09Y-5.41
X6.19Y-3.01
X6.19Y-3.41
X6.19Y-5.01
X6.19Y-5.41
X6.2472Y-4.8659
X6.29Y-3.01
X6.29Y-3.41
X6.29Y-5.01
X6.29Y-5.41
X6.3028Y-4.3835
X6.3028Y-4.4835
X6.3472Y-4.8659
X6.39Y-3.01
X6.39Y-3.41
X6.39Y-5.01
X6.39Y-5.41
X6.4492Y-4.5067
X6.49Y-3.01
X6.49Y-3.41
X6.49Y-5.01
X6.49Y-5.41
X6.514Y-4.6608
X6.514Y-4.7608
X6.514Y-4.8608
X6.5492Y-4.5067
X6.59Y-3.01
X6.59Y-3.41
X6.59Y-5.01
X6.59Y-5.41
X6.6492Y-4.5067
X6.6614Y-4.6589
X6.6614Y-4.7589
X6.6614Y-4.8589
X6.69Y-3.01
X6.69Y-3.41
X6.69Y-5.01
X6.69Y-5.41
X6.7492Y-4.5067
X6.79Y-3.01
X6.79Y-3.41
X6.79Y-5.01
X6.79Y-5.41
X6.89Y-3.01
X6.89Y-3.41
X6.89Y-5.01
X6.89Y-5.41
X6.99Y-3.01
X6.99Y-3.41
X6.99Y-5.01
X6.99Y-5.41
X7.09Y-3.01
X7.09Y-3.41
X7.09Y-5.01
X7.09Y-5.41
X7.198Y-4.4677
X7.198Y-4.5677
X7.198Y-4.6677
X7.198Y-4.7677
X7.198Y-4.8677
X7.298Y-4.4677
X7.298Y-4.5677
X7.298Y-4.6677
X7.298Y-4.7677
X7.298Y-4.8677
T0
M30
