(module "SOIC127P600X175-8N" (layer F.Cu)
  (descr "(OA) – Narrow, 3.90 mm Body [SOIC]")
  (tags "Integrated Circuit")
  (attr smd)
  (fp_text reference IC** (at 0 0) (layer F.SilkS)
    (effects (font (size 1.27 1.27) (thickness 0.254)))
  )
  (fp_text user %R (at 0 0) (layer F.Fab)
    (effects (font (size 1.27 1.27) (thickness 0.254)))
  )
  (fp_text value "SOIC127P600X175-8N" (at 0 0) (layer F.SilkS) hide
    (effects (font (size 1.27 1.27) (thickness 0.254)))
  )
  (fp_line (start -3.7 -2.7) (end 3.7 -2.7) (layer F.CrtYd) (width 0.05))
  (fp_line (start 3.7 -2.7) (end 3.7 2.7) (layer F.CrtYd) (width 0.05))
  (fp_line (start 3.7 2.7) (end -3.7 2.7) (layer F.CrtYd) (width 0.05))
  (fp_line (start -3.7 2.7) (end -3.7 -2.7) (layer F.CrtYd) (width 0.05))
  (fp_line (start -1.95 -2.45) (end 1.95 -2.45) (layer F.Fab) (width 0.1))
  (fp_line (start 1.95 -2.45) (end 1.95 2.45) (layer F.Fab) (width 0.1))
  (fp_line (start 1.95 2.45) (end -1.95 2.45) (layer F.Fab) (width 0.1))
  (fp_line (start -1.95 2.45) (end -1.95 -2.45) (layer F.Fab) (width 0.1))
  (fp_line (start -1.95 -1.18) (end -0.68 -2.45) (layer F.Fab) (width 0.1))
  (fp_line (start -1.6 -2.45) (end 1.6 -2.45) (layer F.SilkS) (width 0.2))
  (fp_line (start 1.6 -2.45) (end 1.6 2.45) (layer F.SilkS) (width 0.2))
  (fp_line (start 1.6 2.45) (end -1.6 2.45) (layer F.SilkS) (width 0.2))
  (fp_line (start -1.6 2.45) (end -1.6 -2.45) (layer F.SilkS) (width 0.2))
  (fp_line (start -3.45 -2.58) (end -1.95 -2.58) (layer F.SilkS) (width 0.2))
  (pad 1 smd rect (at -2.7 -1.905 90) (size 0.65 1.5) (layers F.Cu F.Paste F.Mask))
  (pad 2 smd rect (at -2.7 -0.635 90) (size 0.65 1.5) (layers F.Cu F.Paste F.Mask))
  (pad 3 smd rect (at -2.7 0.635 90) (size 0.65 1.5) (layers F.Cu F.Paste F.Mask))
  (pad 4 smd rect (at -2.7 1.905 90) (size 0.65 1.5) (layers F.Cu F.Paste F.Mask))
  (pad 5 smd rect (at 2.7 1.905 90) (size 0.65 1.5) (layers F.Cu F.Paste F.Mask))
  (pad 6 smd rect (at 2.7 0.635 90) (size 0.65 1.5) (layers F.Cu F.Paste F.Mask))
  (pad 7 smd rect (at 2.7 -0.635 90) (size 0.65 1.5) (layers F.Cu F.Paste F.Mask))
  (pad 8 smd rect (at 2.7 -1.905 90) (size 0.65 1.5) (layers F.Cu F.Paste F.Mask))
  (model AT24C512C-SSHD-T.stp
    (at (xyz 0 0 0))
    (scale (xyz 1 1 1))
    (rotate (xyz 0 0 0))
  )
)
