<?xml version="1.0" encoding="utf-8"?>
<!--/2449640/774014/2.49/9/3/Connector/-->
<!DOCTYPE curve SYSTEM "eagle.dtd">
<eagle version="7.7.0">
<drawing>
<settings>
<setting alwaysvectorfont="no"/>
<setting verticaltext="up"/>
</settings>
<grid distance="0.1" unitdist="inch" unit="inch" style="lines" multiple="1" display="no" altdistance="0.01" altunitdist="inch" altunit="inch"/>
<layers>
<layer number="1" name="Top" color="4" fill="1" visible="yes" active="yes"/>
<layer number="16" name="Bottom" color="1" fill="1" visible="yes" active="yes"/>
<layer number="17" name="Pads" color="2" fill="1" visible="yes" active="yes"/>
<layer number="18" name="Vias" color="2" fill="1" visible="yes" active="yes"/>
<layer number="19" name="Unrouted" color="6" fill="1" visible="yes" active="yes"/>
<layer number="20" name="Dimension" color="15" fill="1" visible="yes" active="yes"/>
<layer number="21" name="tPlace" color="7" fill="1" visible="yes" active="yes"/>
<layer number="22" name="bPlace" color="7" fill="1" visible="yes" active="yes"/>
<layer number="23" name="tOrigins" color="15" fill="1" visible="yes" active="yes"/>
<layer number="24" name="bOrigins" color="15" fill="1" visible="yes" active="yes"/>
<layer number="25" name="tNames" color="7" fill="1" visible="yes" active="yes"/>
<layer number="26" name="bNames" color="7" fill="1" visible="yes" active="yes"/>
<layer number="27" name="tValues" color="7" fill="1" visible="yes" active="yes"/>
<layer number="28" name="bValues" color="7" fill="1" visible="yes" active="yes"/>
<layer number="29" name="tStop" color="7" fill="3" visible="no" active="yes"/>
<layer number="30" name="bStop" color="7" fill="6" visible="no" active="yes"/>
<layer number="31" name="tCream" color="7" fill="4" visible="no" active="yes"/>
<layer number="32" name="bCream" color="7" fill="5" visible="no" active="yes"/>
<layer number="33" name="tFinish" color="6" fill="3" visible="no" active="yes"/>
<layer number="34" name="bFinish" color="6" fill="6" visible="no" active="yes"/>
<layer number="35" name="tGlue" color="7" fill="4" visible="no" active="yes"/>
<layer number="36" name="bGlue" color="7" fill="5" visible="no" active="yes"/>
<layer number="37" name="tTest" color="7" fill="1" visible="no" active="yes"/>
<layer number="38" name="bTest" color="7" fill="1" visible="no" active="yes"/>
<layer number="39" name="tKeepout" color="4" fill="11" visible="yes" active="yes"/>
<layer number="40" name="bKeepout" color="1" fill="11" visible="yes" active="yes"/>
<layer number="41" name="tRestrict" color="4" fill="10" visible="yes" active="yes"/>
<layer number="42" name="bRestrict" color="1" fill="10" visible="yes" active="yes"/>
<layer number="43" name="vRestrict" color="2" fill="10" visible="yes" active="yes"/>
<layer number="44" name="Drills" color="7" fill="1" visible="no" active="yes"/>
<layer number="45" name="Holes" color="7" fill="1" visible="no" active="yes"/>
<layer number="46" name="Milling" color="3" fill="1" visible="no" active="yes"/>
<layer number="47" name="Measures" color="7" fill="1" visible="no" active="yes"/>
<layer number="48" name="Document" color="7" fill="1" visible="yes" active="yes"/>
<layer number="49" name="Reference" color="7" fill="1" visible="yes" active="yes"/>
<layer number="51" name="tDocu" color="7" fill="1" visible="yes" active="yes"/>
<layer number="52" name="bDocu" color="7" fill="1" visible="yes" active="yes"/>
<layer number="90" name="Modules" color="5" fill="1" visible="yes" active="yes"/>
<layer number="91" name="Nets" color="2" fill="1" visible="yes" active="yes"/>
<layer number="92" name="Busses" color="1" fill="1" visible="yes" active="yes"/>
<layer number="93" name="Pins" color="2" fill="1" visible="no" active="yes"/>
<layer number="94" name="Symbols" color="4" fill="1" visible="yes" active="yes"/>
<layer number="95" name="Names" color="7" fill="1" visible="yes" active="yes"/>
<layer number="96" name="Values" color="7" fill="1" visible="yes" active="yes"/>
<layer number="97" name="Info" color="7" fill="1" visible="yes" active="yes"/>
<layer number="98" name="Guide" color="6" fill="1" visible="yes" active="yes"/>
</layers>
<library>
<description>&lt;USB Connectors SMD RoHS/002&lt;/b&gt;&lt;p&gt;
&lt;author&gt;Created by SamacSys&lt;/author&gt;</description>
<packages>
<package name="MICROQTJ">
<description>&lt;b&gt;MICROQTJ-2-1&lt;/b&gt;&lt;br&gt;
</description>
<smd name="1" x="1.300" y="3.192" dx="1.850" dy="0.400" layer="1" rot="R90"/>
<smd name="2" x="0.650" y="3.192" dx="1.850" dy="0.400" layer="1" rot="R90"/>
<smd name="3" x="0.000" y="3.192" dx="1.850" dy="0.400" layer="1" rot="R90"/>
<smd name="4" x="-0.650" y="3.192" dx="1.850" dy="0.400" layer="1" rot="R90"/>
<smd name="5" x="-1.300" y="3.192" dx="1.850" dy="0.400" layer="1" rot="R90"/>
<hole x="2.000" y="2.508" drill="0.5"/>
<hole x="-2.000" y="2.508" drill="0.5"/>
<smd name="MP1" x="3.212" y="2.718" dx="1.625" dy="0.900" layer="1" rot="R0"/>
<smd name="MP2" x="-3.212" y="2.718" dx="1.625" dy="0.900" layer="1" rot="R0"/>
<smd name="MP3" x="3.270" y="0.358" dx="1.690" dy="1.300" layer="1" rot="R0"/>
<smd name="MP4" x="-3.270" y="0.358" dx="1.690" dy="1.300" layer="1" rot="R0"/>
<text x="0.000" y="0.463" align="center" size="1.27" layer="25" rot="R0" >&gt;NAME</text>
<text x="0.000" y="0.463" align="center" size="1.27" layer="27" rot="R0" >&gt;VALUE</text>
<wire x1="-3.75" y1="3.008" x2="3.75" y2="3.008" width="0.1" layer="51"/>
<wire x1="3.75" y1="3.008" x2="3.75" y2="-3.192" width="0.1" layer="51"/>
<wire x1="3.75" y1="-3.192" x2="-3.75" y2="-3.192" width="0.1" layer="51"/>
<wire x1="-3.75" y1="-3.192" x2="-3.75" y2="3.008" width="0.1" layer="51"/>
<wire x1="-5.115" y1="5.118" x2="5.115" y2="5.118" width="0.1" layer="51"/>
<wire x1="5.115" y1="5.118" x2="5.115" y2="-4.192" width="0.1" layer="51"/>
<wire x1="5.115" y1="-4.192" x2="-5.115" y2="-4.192" width="0.1" layer="51"/>
<wire x1="-5.115" y1="-4.192" x2="-5.115" y2="5.118" width="0.1" layer="51"/>
<wire x1="1.3" y1="4.4" x2="1.3" y2="4.4" width="0.1" layer="21"/>
<wire x1="1.300" y1="4.400" x2="1.300" y2="4.500" width="0.1" layer="21" curve="180.0"/>
<wire x1="1.3" y1="4.5" x2="1.3" y2="4.5" width="0.1" layer="21"/>
<wire x1="1.300" y1="4.500" x2="1.300" y2="4.400" width="0.1" layer="21" curve="180.0"/>
<wire x1="-3.75" y1="-0.8" x2="-3.75" y2="-3.192" width="0.2" layer="21"/>
<wire x1="-3.75" y1="-3.192" x2="3.75" y2="-3.192" width="0.2" layer="21"/>
<wire x1="3.75" y1="-3.192" x2="3.75" y2="-0.8" width="0.2" layer="21"/>
</package>
</packages>
<symbols>
<symbol name="MICROQTJ">
<wire x1="5.08" y1="2.54" x2="17.78" y2="2.54" width="0.254" layer="94"/>
<wire x1="17.78" y1="-12.7" x2="17.78" y2="2.54" width="0.254" layer="94"/>
<wire x1="17.78" y1="-12.7" x2="5.08" y2="-12.7" width="0.254" layer="94"/>
<wire x1="5.08" y1="2.54" x2="5.08" y2="-12.7" width="0.254" layer="94"/>
<text x="19.05" y="7.62" align="center-left" size="1.778" layer="95">&gt;NAME</text>
<text x="19.05" y="5.08" align="center-left" size="1.778" layer="96">&gt;VALUE</text>
<pin name="1" x="0" y="0" length="middle" direction="io" rot="R0"/>
<pin name="2" x="0" y="-2.54" length="middle" direction="io" rot="R0"/>
<pin name="3" x="0" y="-5.08" length="middle" direction="io" rot="R0"/>
<pin name="4" x="0" y="-7.62" length="middle" direction="io" rot="R0"/>
<pin name="5" x="0" y="-10.16" length="middle" direction="io" rot="R0"/>
<pin name="MP1" x="22.86" y="0" length="middle" direction="io" rot="R180"/>
<pin name="MP2" x="22.86" y="-2.54" length="middle" direction="io" rot="R180"/>
<pin name="MP3" x="22.86" y="-5.08" length="middle" direction="io" rot="R180"/>
<pin name="MP4" x="22.86" y="-7.62" length="middle" direction="io" rot="R180"/>
</symbol>
</symbols>
<devicesets>
<deviceset name="MICROQTJ" prefix="J">
<description>&lt;b&gt;USB Connectors SMD RoHS/002&lt;/b&gt;&lt;p&gt;
Source: &lt;a href="https://datasheet.lcsc.com/lcsc/1912111437_SHOU-HAN-MicroQTJ_C404968.pdf"&gt; Datasheet &lt;/a&gt;</description>
<gates>
<gate name="G$1" symbol="MICROQTJ" x="0" y="0"/>
</gates>
<devices>
<device name="" package="MICROQTJ">
<connects>
<connect gate="G$1" pin="1" pad="1"/>
<connect gate="G$1" pin="2" pad="2"/>
<connect gate="G$1" pin="3" pad="3"/>
<connect gate="G$1" pin="4" pad="4"/>
<connect gate="G$1" pin="5" pad="5"/>
<connect gate="G$1" pin="MP1" pad="MP1"/>
<connect gate="G$1" pin="MP2" pad="MP2"/>
<connect gate="G$1" pin="MP3" pad="MP3"/>
<connect gate="G$1" pin="MP4" pad="MP4"/>
</connects>
<technologies>
<technology name="">
<attribute name="Manufacturer_Name" value="Shou Han" constant="no"/>
<attribute name="Manufacturer_Part_Number" value="MICROQTJ" constant="no"/>
<attribute name="Mouser_Part_Number" value="" constant="no"/>
<attribute name="Mouser_Price-Stock" value="" constant="no"/>
<attribute name="Arrow_Part_Number" value="" constant="no"/>
<attribute name="Arrow_Price-Stock" value="" constant="no"/>
<attribute name="Description" value="USB Connectors SMD RoHS/002" constant="no"/>
<attribute name="Height" value="1.91mm" constant="no"/>
</technology>
</technologies>
</device>
</devices>
</deviceset>
</devicesets>
</library>
</drawing>
</eagle>
