Version 4
SHEET 1 916 680
WIRE 128 192 0 192
WIRE 320 192 224 192
WIRE 384 192 320 192
WIRE 608 192 384 192
WIRE 656 192 608 192
WIRE 832 192 752 192
WIRE 0 224 0 192
WIRE 320 224 320 192
WIRE 608 256 608 192
WIRE 832 256 832 192
WIRE 576 272 512 272
WIRE 208 288 208 240
WIRE 320 288 208 288
WIRE 736 288 736 240
WIRE 736 288 640 288
WIRE 384 304 384 272
WIRE 576 304 384 304
WIRE 208 320 208 288
WIRE 0 336 0 304
WIRE 384 384 384 304
WIRE 512 384 512 272
WIRE 208 432 208 400
WIRE 832 432 832 336
WIRE 512 464 384 464
WIRE 608 464 608 320
WIRE 608 464 512 464
WIRE 512 512 512 464
FLAG 0 336 0
FLAG 208 432 0
FLAG 512 512 0
FLAG 832 432 0
SYMBOL pmos 128 240 R270
SYMATTR InstName M1
SYMATTR Value RRQ030P03
SYMBOL voltage 0 208 R0
WINDOW 123 0 0 Left 0
WINDOW 39 0 0 Left 0
SYMATTR InstName V1
SYMATTR Value 3.0
SYMBOL zener 336 288 R180
WINDOW 0 24 64 Left 2
WINDOW 3 24 0 Left 2
SYMATTR InstName D1
SYMATTR Value MMBZ6V2AL
SYMBOL res 192 304 R0
SYMATTR InstName R1
SYMATTR Value 10k
SYMBOL voltage 512 368 R0
WINDOW 123 0 0 Left 0
WINDOW 39 0 0 Left 0
SYMATTR InstName V2
SYMATTR Value 2.4
SYMBOL OpAmps\\UniversalOpamp2 608 288 R0
SYMATTR InstName U1
SYMBOL res 368 176 R0
SYMATTR InstName R2
SYMATTR Value 3.3k
SYMBOL res 368 368 R0
SYMATTR InstName R3
SYMATTR Value 10k
SYMBOL nmos 656 240 R270
SYMATTR InstName M2
SYMATTR Value FDS6612A
SYMBOL res 816 240 R0
SYMATTR InstName R4
SYMATTR Value 1000
TEXT -32 456 Left 2 !.tran 0 100000 0 10
